{
    "Beginner": {
        "options": {
            "logic_rules": "logic_rules_glitchless",
            "starting_age": "child",
            "consider_buyable": false,
            "bombchu_logic": false,
            "keysanity_small": false,
            "scrubsanity": false,
            "cowsanity": false,
            "beansanity": false,
            "skullsanity": false,
            "doors_open_forest": "doors_open_forest_closed",
            "doors_open_temple": false,
            "doors_open_zora": "doors_open_zora_closed",
            "gerudo_fortress_open": "gerudo_fortress_open_default",
            "trade_sequence_start_item": 1,
            "free_scarecrow": false,
            "track_keys": true,
            "track_bosskeys": true,
            "shuffle_expensive_merchants": false,
            "doors_open_kakariko": "doors_open_kakariko_closed",
            "shuffle_grottos": false,
            "shuffle_dungeons": false,
            "entrance_shuffle_interior": "entrance_shuffle_off",
            "keysanity_small_old": "keysanity_small_ignore",
            "keysanity_boss_old": "keysanity_boss_ignore",
            "shuffle_overworld": false,
            "light_arrow_cutscene": "light_arrow_cutscene_vanilla",
            "lacs_skulltulas": 100,
            "stone_count_lacs": 3,
            "medallion_count_lacs": 6,
            "dungeon_count_lacs": 9,
            "ganon_castle_open": "ganon_castle_open_default",
            "ganon_castle_skulltulas": 100,
            "stone_count_bridge": 3,
            "medallion_count_bridge": 6,
            "dungeon_count_bridge": 9,
            "ganon_boss_door_open": false,
            "trials": [
                "forest_trial",
                "water_trial",
                "shadow_trial",
                "fire_trial",
                "light_trial",
                "spirit_trial"
            ],
            "skip.lens_required": "lens_required_default",
            "overworld_skips": [],
            "child_dungeons": [],
            "mini_adult_dungeons": [],
            "area.temple_forest": [],
            "area.temple_fire": [],
            "area.temple_water": [],
            "area.temple_shadow": [],
            "area.temple_spirit": []
        }
    },
    "Easy Mode": {
        "options": {
            "logic_rules": "logic_rules_glitchless",
            "starting_age": "child",
            "consider_buyable": false,
            "bombchu_logic": false,
            "keysanity_small": false,
            "scrubsanity": false,
            "cowsanity": false,
            "beansanity": false,
            "skullsanity": false,
            "doors_open_forest": "doors_open_forest_closed",
            "doors_open_temple": true,
            "doors_open_zora": "doors_open_zora_closed",
            "gerudo_fortress_open": "gerudo_fortress_open_one",
            "trade_sequence_start_item": 8,
            "free_scarecrow": false,
            "track_keys": true,
            "track_bosskeys": true,
            "shuffle_expensive_merchants": false,
            "doors_open_kakariko": "doors_open_kakariko_open",
            "shuffle_grottos": false,
            "shuffle_dungeons": false,
            "entrance_shuffle_interior": "entrance_shuffle_off",
            "keysanity_small_old": "keysanity_small_ignore",
            "keysanity_boss_old": "keysanity_boss_ignore",
            "shuffle_overworld": false,
            "light_arrow_cutscene": "light_arrow_cutscene_vanilla",
            "lacs_skulltulas": 100,
            "stone_count_lacs": 3,
            "medallion_count_lacs": 6,
            "dungeon_count_lacs": 9,
            "ganon_castle_open": "ganon_castle_open_medallion",
            "ganon_castle_skulltulas": 100,
            "stone_count_bridge": 3,
            "medallion_count_bridge": 6,
            "dungeon_count_bridge": 9,
            "ganon_boss_door_open": true,
            "trials": [
                "forest_trial",
                "water_trial",
                "shadow_trial",
                "fire_trial",
                "light_trial",
                "spirit_trial"
            ],
            "skip.lens_required": "lens_required_default",
            "overworld_skips": [],
            "child_dungeons": [],
            "mini_adult_dungeons": [],
            "area.temple_forest": [],
            "area.temple_fire": [],
            "area.temple_water": [],
            "area.temple_shadow": [],
            "area.temple_spirit": []
        }
    },
    "S3 Standard": {
        "options": {
            "logic_rules": "logic_rules_glitchless",
            "starting_age": "child",
            "consider_buyable": false,
            "bombchu_logic": false,
            "keysanity_small": false,
            "entrance_shuffle": "entrance_shuffle_off",
            "scrubsanity": false,
            "cowsanity": false,
            "beansanity": false,
            "skullsanity": false,
            "doors_open_forest": "doors_open_forest_open",
            "doors_open_temple": "true",
            "doors_open_zora": "doors_open_zora_closed",
            "gerudo_fortress_open": "gerudo_fortress_open_one",
            "trade_sequence_start_item": 8,
            "free_scarecrow": false,
            "track_keys": true,
            "track_bosskeys": true,
            "shuffle_expensive_merchants": false,
            "doors_open_kakariko": "doors_open_kakariko_closed",
            "shuffle_grottos": false,
            "shuffle_dungeons": false,
            "entrance_shuffle_interior": "entrance_shuffle_off",
            "keysanity_small_old": "keysanity_small_ignore",
            "keysanity_boss_old": "keysanity_boss_ignore",
            "shuffle_overworld": false,
            "light_arrow_cutscene": "light_arrow_cutscene_vanilla",
            "lacs_skulltulas": 100,
            "stone_count_lacs": 3,
            "medallion_count_lacs": 6,
            "dungeon_count_lacs": 9,
            "ganon_castle_open": "ganon_castle_open_medallion",
            "ganon_castle_skulltulas": 100,
            "stone_count_bridge": 3,
            "medallion_count_bridge": 6,
            "dungeon_count_bridge": 9,
            "ganon_boss_door_open": true,
            "number_trials": 0,
            "trials": [],
            "skip.lens_required": "lens_required_wasteland",
            "overworld_skips": [
                "skip.fewer_tunic_requirements",
                "skip.grottos_without_agony",
                "skip.rusted_switches",
                "skip.man_on_roof",
                "skip.windmill_poh",
                "skip.crater_bean_poh_with_hovers",
                "skip.goron_city_pot_with_strength"
            ],
            "child_dungeons": [
                "skip.child_deadhand",
                "skip.dc_jump"
            ],
            "mini_adult_dungeons": [],
            "area.temple_forest": [
                "skip.forest_vines"
            ],
            "area.temple_fire": [],
            "area.temple_water": [],
            "area.temple_shadow": [],
            "area.temple_spirit": []
        }
    },
    "S4 Standard": {
        "options": {
            "logic_rules": "logic_rules_glitchless",
            "starting_age": "child",
            "consider_buyable": false,
            "bombchu_logic": false,
            "free_scarecrow": false,
            "keysanity_small": false,
            "track_keys": true,
            "track_bosskeys": true,
            "scrubsanity": false,
            "cowsanity": false,
            "beansanity": false,
            "shuffle_expensive_merchants": false,
            "doors_open_forest": "doors_open_forest_deku",
            "doors_open_kakariko": "doors_open_kakariko_open",
            "doors_open_temple": true,
            "doors_open_zora": "doors_open_zora_closed",
            "gerudo_fortress_open": "gerudo_fortress_open_one",
            "shuffle_grottos": false,
            "shuffle_dungeons": false,
            "entrance_shuffle_interior": "entrance_shuffle_off",
            "trade_sequence_start_item": 8,
            "keysanity_small_old": "keysanity_small_ignore",
            "keysanity_boss_old": "keysanity_boss_ignore",
            "skullsanity": false,
            "shuffle_overworld": false,
            "light_arrow_cutscene": "light_arrow_cutscene_medallions",
            "lacs_skulltulas": 100,
            "stone_count_lacs": 3,
            "medallion_count_lacs": 6,
            "dungeon_count_lacs": 9,
            "ganon_castle_open": "ganon_castle_open_medallion",
            "ganon_castle_skulltulas": 100,
            "stone_count_bridge": 3,
            "medallion_count_bridge": 2,
            "dungeon_count_bridge": 9,
            "ganon_boss_door_open": false,
            "number_trials": 0,
            "trials": [],
            "skip.lens_required": "lens_required_default",
            "overworld_skips": [
                "skip.grottos_without_agony",
                "skip.rusted_switches",
                "skip.fewer_tunic_requirements",
                "skip.man_on_roof",
                "skip.windmill_poh",
                "skip.crater_bean_poh_with_hovers"
            ],
            "child_dungeons": [
                "skip.lens_botw",
                "skip.child_deadhand",
                "skip.dc_jump"
            ],
            "mini_adult_dungeons": [
                "skip.lens_gtg",
                "skip.lens_castle"
            ],
            "area.temple_forest": [
                "skip.forest_vines"
            ],
            "area.temple_fire": [],
            "area.temple_water": [],
            "area.temple_shadow": [
                "skip.lens_shadow",
                "skip.lens_shadow_back"
            ],
            "area.temple_spirit": [
                "skip.lens_spirit"
            ],
            "known_sequence_breaks": []
        },
        "items": {
            "shield_kokiri": 1,
            "ocarina": 1,
            "egg": 3,
            "stick": 1,
            "nut": 1
        }
    },
    "S5 Standard": {
        "options": {
            "logic_rules": "logic_rules_glitchless",
            "starting_age": "child",
            "consider_buyable": false,
            "bombchu_logic": false,
            "free_scarecrow": false,
            "keysanity_small": false,
            "track_keys": true,
            "track_bosskeys": true,
            "scrubsanity": false,
            "cowsanity": false,
            "beansanity": false,
            "shuffle_expensive_merchants": false,
            "doors_open_forest": "doors_open_forest_deku",
            "doors_open_kakariko": "doors_open_kakariko_open",
            "doors_open_temple": true,
            "doors_open_zora": "doors_open_zora_closed",
            "gerudo_fortress_open": "gerudo_fortress_open_one",
            "shuffle_grottos": false,
            "shuffle_dungeons": false,
            "entrance_shuffle_interior": "entrance_shuffle_off",
            "trade_sequence_start_item": 8,
            "keysanity_small_old": "keysanity_small_ignore",
            "keysanity_boss_old": "keysanity_boss_ignore",
            "skullsanity": false,
            "shuffle_overworld": false,
            "light_arrow_cutscene": "light_arrow_cutscene_vanilla",
            "lacs_skulltulas": 100,
            "stone_count_lacs": 3,
            "medallion_count_lacs": 6,
            "dungeon_count_lacs": 9,
            "ganon_castle_open": "ganon_castle_open_medallion",
            "ganon_castle_skulltulas": 100,
            "stone_count_bridge": 3,
            "medallion_count_bridge": 6,
            "dungeon_count_bridge": 9,
            "ganon_boss_door_open": true,
            "number_trials": 0,
            "trials": [],
            "skip.lens_required": "lens_required_default",
            "overworld_skips": [
                "skip.grottos_without_agony",
                "skip.rusted_switches",
                "skip.fewer_tunic_requirements",
                "skip.man_on_roof",
                "skip.windmill_poh",
                "skip.crater_bean_poh_with_hovers"
            ],
            "child_dungeons": [
                "skip.lens_botw",
                "skip.child_deadhand",
                "skip.dc_jump"
            ],
            "mini_adult_dungeons": [
                "skip.lens_gtg",
                "skip.lens_castle"
            ],
            "area.temple_forest": [
                "skip.forest_vines"
            ],
            "area.temple_fire": [],
            "area.temple_water": [],
            "area.temple_shadow": [
                "skip.lens_shadow",
                "skip.lens_shadow_back"
            ],
            "area.temple_spirit": [
                "skip.lens_spirit"
            ],
            "known_sequence_breaks": []
        },
        "items": {
            "shield_kokiri": 1,
            "ocarina": 1,
            "egg": 3,
            "stick": 1,
            "nut": 1
        }
    },
    "S6 Tournament": {
        "options": {
            "logic_rules": "logic_rules_glitchless",
            "starting_age": "child",
            "consider_buyable": false,
            "bombchu_logic": false,
            "free_scarecrow": false,
            "keysanity_small": false,
            "track_keys": true,
            "track_bosskeys": true,
            "skip_child_zelda": "skip_child_zelda",
            "skip_epona_race": true,
            "scrubsanity": false,
            "cowsanity": false,
            "beansanity": false,
            "shuffle_expensive_merchants": false,
            "doors_open_forest": "doors_open_forest_deku",
            "doors_open_kakariko": "doors_open_kakariko_open",
            "doors_open_temple": true,
            "doors_open_zora": "doors_open_zora_closed",
            "gerudo_fortress_open": "gerudo_fortress_open_one",
            "shuffle_grottos": false,
            "shuffle_dungeons": false,
            "entrance_shuffle_interior": "entrance_shuffle_off",
            "trade_sequence_start_item": 8,
            "big_poe_count": 1,
            "keysanity_small_old": "keysanity_small_ignore",
            "keysanity_boss_old": "keysanity_boss_ignore",
            "small_key_logic": "keylogic_own_dungeon",
            "boss_key_logic": "keylogic_own_dungeon",
            "ganon_key_logic": "keylogic_own_dungeon",
            "skullsanity": false,
            "shuffle_overworld": false,
            "light_arrow_cutscene": "light_arrow_cutscene_vanilla",
            "lacs_skulltulas": 100,
            "stone_count_lacs": 3,
            "medallion_count_lacs": 6,
            "dungeon_count_lacs": 9,
            "ganon_castle_open": "ganon_castle_open_medallion",
            "ganon_castle_skulltulas": 100,
            "stone_count_bridge": 3,
            "medallion_count_bridge": 6,
            "dungeon_count_bridge": 9,
            "ganon_boss_door_open": true,
            "number_trials": 0,
            "trials": [],
            "skip.lens_required": "lens_required_never",
            "overworld_skips": [
                "skip.grottos_without_agony",
                "skip.rusted_switches",
                "skip.fewer_tunic_requirements",
                "skip.man_on_roof",
                "skip.windmill_poh",
                "skip.crater_bean_poh_with_hovers"
            ],
            "child_dungeons": [
                "skip.lens_botw",
                "skip.child_deadhand",
                "skip.dc_jump"
            ],
            "mini_adult_dungeons": [
                "skip.lens_gtg",
                "skip.lens_castle"
            ],
            "area.temple_forest": [
                "skip.forest_vines"
            ],
            "area.temple_fire": [],
            "area.temple_water": [],
            "area.temple_shadow": [
                "skip.lens_shadow",
                "skip.lens_shadow_back"
            ],
            "area.temple_spirit": [
                "skip.lens_spirit"
            ],
            "known_sequence_breaks": []
        },
        "items": {
            "shield_kokiri": 1,
            "ocarina": 1,
            "egg": 3,
            "stick": 1,
            "nut": 1
        }
    },
    "S3 Scrub Tournament": {
        "options": {
            "logic_rules": "logic_rules_glitchless",
            "starting_age": "child",
            "consider_buyable": false,
            "bombchu_logic": false,
            "keysanity_small": false,
            "scrubsanity": false,
            "cowsanity": false,
            "beansanity": false,
            "skullsanity": false,
            "doors_open_forest": "doors_open_forest_open",
            "doors_open_temple": true,
            "doors_open_zora": "doors_open_zora_closed",
            "gerudo_fortress_open": "gerudo_fortress_open_one",
            "trade_sequence_start_item": 11,
            "free_scarecrow": false,
            "track_keys": true,
            "track_bosskeys": true,
            "shuffle_expensive_merchants": false,
            "doors_open_kakariko": "doors_open_kakariko_open",
            "shuffle_grottos": false,
            "shuffle_dungeons": false,
            "entrance_shuffle_interior": "entrance_shuffle_off",
            "keysanity_small_old": "keysanity_small_ignore",
            "keysanity_boss_old": "keysanity_boss_ignore",
            "shuffle_overworld": false,
            "shuffle_spawns": true,
            "light_arrow_cutscene": "light_arrow_cutscene_medallions",
            "lacs_skulltulas": 100,
            "stone_count_lacs": 3,
            "medallion_count_lacs": 6,
            "dungeon_count_lacs": 9,
            "ganon_castle_open": "ganon_castle_open_medallion",
            "ganon_castle_skulltulas": 100,
            "stone_count_bridge": 3,
            "medallion_count_bridge": 4,
            "dungeon_count_bridge": 9,
            "ganon_boss_door_open": false,
            "skip_epona_race": true,
            "skip_child_zelda": true,
            "number_trials": 0,
            "trials": [],
            "skip.lens_required": "lens_required_default",
            "overworld_skips": [
                "skip.fewer_tunic_requirements",
                "skip.grottos_without_agony",
                "skip.man_on_roof",
                "skip.rusted_switches",
                "skip.windmill_poh",
                "skip.crater_bean_poh_with_hovers"
            ],
            "child_dungeons": [
                "skip.child_deadhand",
                "skip.dc_jump",
                "skip.lens_botw"
            ],
            "mini_adult_dungeons": [
                "skip.lens_gtg",
                "skip.lens_castle"
            ],
            "area.temple_forest": [
                "skip.forest_vines"
            ],
            "area.temple_fire": [],
            "area.temple_water": [],
            "area.temple_shadow": [
                "skip.lens_shadow",
                "skip.lens_shadow_back"
            ],
            "area.temple_spirit": [
                "skip.lens_spirit"
            ]
        },
        "items": {
            "shield_kokiri": 1,
            "ocarina": 1,
            "egg": 3,
            "stick": 1,
            "nut": 1,
            "lens": 1
        }
    },
    "Weekly Settings": {
        "options": {
            "logic_rules": "logic_rules_glitchless",
            "starting_age": "child",
            "consider_buyable": false,
            "bombchu_logic": false,
            "free_scarecrow": false,
            "keysanity_small": false,
            "track_keys": true,
            "track_bosskeys": true,
            "scrubsanity": false,
            "cowsanity": false,
            "beansanity": false,
            "shuffle_expensive_merchants": false,
            "doors_open_forest": "doors_open_forest_deku",
            "doors_open_kakariko": "doors_open_kakariko_open",
            "doors_open_temple": true,
            "doors_open_zora": "doors_open_zora_closed",
            "gerudo_fortress_open": "gerudo_fortress_open_one",
            "shuffle_grottos": false,
            "shuffle_dungeons": false,
            "entrance_shuffle_interior": "entrance_shuffle_off",
            "trade_sequence_start_item": 8,
            "keysanity_small_old": "keysanity_small_ignore",
            "keysanity_boss_old": "keysanity_boss_ignore",
            "skullsanity": false,
            "shuffle_overworld": false,
            "light_arrow_cutscene": "light_arrow_cutscene_vanilla",
            "lacs_skulltulas": 100,
            "stone_count_lacs": 3,
            "medallion_count_lacs": 6,
            "dungeon_count_lacs": 9,
            "ganon_castle_open": "ganon_castle_open_medallion",
            "ganon_castle_skulltulas": 100,
            "stone_count_bridge": 3,
            "medallion_count_bridge": 6,
            "dungeon_count_bridge": 9,
            "ganon_boss_door_open": true,
            "number_trials": 0,
            "trials": [],
            "skip.lens_required": "lens_required_default",
            "overworld_skips": [
                "skip.grottos_without_agony",
                "skip.rusted_switches",
                "skip.fewer_tunic_requirements",
                "skip.man_on_roof",
                "skip.windmill_poh",
                "skip.crater_bean_poh_with_hovers"
            ],
            "child_dungeons": [
                "skip.lens_botw",
                "skip.child_deadhand",
                "skip.dc_jump"
            ],
            "mini_adult_dungeons": [
                "skip.lens_gtg",
                "skip.lens_castle"
            ],
            "area.temple_forest": [
                "skip.forest_vines"
            ],
            "area.temple_fire": [],
            "area.temple_water": [],
            "area.temple_shadow": [
                "skip.lens_shadow",
                "skip.lens_shadow_back"
            ],
            "area.temple_spirit": [
                "skip.lens_spirit"
            ],
            "known_sequence_breaks": []
        },
        "items": {
            "shield_kokiri": 1,
            "ocarina": 1,
            "egg": 3,
            "stick": 1,
            "nut": 1
        }
    },
    "League Settings": {
        "options": {
            "logic_rules": "logic_rules_glitchless",
            "starting_age": "child",
            "consider_buyable": false,
            "bombchu_logic": false,
            "keysanity_small": false,
            "scrubsanity": false,
            "cowsanity": false,
            "beansanity": false,
            "skullsanity": false,
            "doors_open_forest": "doors_open_forest_open",
            "doors_open_temple": true,
            "doors_open_zora": "doors_open_zora_closed",
            "gerudo_fortress_open": "gerudo_fortress_open_one",
            "trade_sequence_start_item": 11,
            "free_scarecrow": false,
            "track_keys": true,
            "track_bosskeys": true,
            "shuffle_expensive_merchants": false,
            "doors_open_kakariko": "doors_open_kakariko_open",
            "shuffle_grottos": false,
            "shuffle_dungeons": false,
            "entrance_shuffle_interior": "entrance_shuffle_off",
            "keysanity_small_old": "keysanity_small_ignore",
            "keysanity_boss_old": "keysanity_boss_ignore",
            "shuffle_overworld": false,
            "shuffle_spawns": true,
            "light_arrow_cutscene": "light_arrow_cutscene_medallions",
            "lacs_skulltulas": 100,
            "stone_count_lacs": 3,
            "medallion_count_lacs": 6,
            "dungeon_count_lacs": 9,
            "ganon_castle_open": "ganon_castle_open_medallion",
            "ganon_castle_skulltulas": 100,
            "stone_count_bridge": 3,
            "medallion_count_bridge": 4,
            "dungeon_count_bridge": 9,
            "ganon_boss_door_open": false,
            "skip_epona_race": true,
            "skip_child_zelda": true,
            "number_trials": 0,
            "trials": [],
            "skip.lens_required": "lens_required_default",
            "overworld_skips": [
                "skip.fewer_tunic_requirements",
                "skip.grottos_without_agony"
            ],
            "child_dungeons": [
                "skip.child_deadhand",
                "skip.lens_botw"
            ],
            "mini_adult_dungeons": [
                "skip.lens_gtg",
                "skip.lens_castle"
            ],
            "area.temple_forest": [
                "skip.forest_vines"
            ],
            "area.temple_fire": [],
            "area.temple_water": [],
            "area.temple_shadow": [
                "skip.lens_shadow",
                "skip.lens_shadow_back"
            ],
            "area.temple_spirit": [
                "skip.lens_spirit"
            ]
        },
        "items": {
            "shield_kokiri": 1,
            "ocarina": 1,
            "egg": 3,
            "lens": 1
        }
    },
    "Multiworld": {
        "options": {
            "logic_rules": "logic_rules_glitchless",
            "starting_age": "child",
            "consider_buyable": false,
            "bombchu_logic": false,
            "keysanity_small": false,
            "scrubsanity": false,
            "cowsanity": false,
            "beansanity": false,
            "skullsanity": false,
            "doors_open_forest": "doors_open_forest_open",
            "doors_open_temple": true,
            "doors_open_zora": "doors_open_zora_closed",
            "gerudo_fortress_open": "gerudo_fortress_open_one",
            "trade_sequence_start_item": 11,
            "free_scarecrow": true,
            "track_keys": true,
            "track_bosskeys": true,
            "shuffle_expensive_merchants": false,
            "doors_open_kakariko": "doors_open_kakariko_closed",
            "shuffle_grottos": false,
            "shuffle_dungeons": false,
            "entrance_shuffle_interior": "entrance_shuffle_off",
            "keysanity_small_old": "keysanity_small_ignore",
            "keysanity_boss_old": "keysanity_boss_ignore",
            "shuffle_overworld": false,
            "light_arrow_cutscene": "light_arrow_cutscene_vanilla",
            "lacs_skulltulas": 100,
            "stone_count_lacs": 3,
            "medallion_count_lacs": 6,
            "dungeon_count_lacs": 9,
            "ganon_castle_open": "ganon_castle_open_medallion",
            "ganon_castle_skulltulas": 100,
            "stone_count_bridge": 3,
            "medallion_count_bridge": 6,
            "dungeon_count_bridge": 9,
            "ganon_boss_door_open": true,
            "trials": [
                "forest_trial",
                "water_trial",
                "shadow_trial",
                "fire_trial",
                "light_trial",
                "spirit_trial"
            ],
            "skip.lens_required": "lens_required_default",
            "overworld_skips": [
                "skip.fewer_tunic_requirements"
            ],
            "child_dungeons": [],
            "mini_adult_dungeons": [],
            "area.temple_forest": [],
            "area.temple_fire": [],
            "area.temple_water": [],
            "area.temple_shadow": [],
            "area.temple_spirit": []
        },
        "items": {
            "shield_kokiri": 1
        }
    },
    "Hell Mode": {
        "options": {
            "logic_rules": "logic_rules_glitchless",
            "starting_age": "child",
            "consider_buyable": false,
            "bombchu_logic": true,
            "keysanity_small": true,
            "scrubsanity": true,
            "cowsanity": true,
            "beansanity": true,
            "skullsanity": true,
            "doors_open_forest": "doors_open_forest_closed",
            "doors_open_temple": false,
            "doors_open_zora": "doors_open_zora_closed",
            "gerudo_fortress_open": "gerudo_fortress_open_default",
            "trade_sequence_start_item": 1,
            "free_scarecrow": false,
            "track_keys": true,
            "track_bosskeys": true,
            "shuffle_expensive_merchants": true,
            "doors_open_kakariko": "doors_open_kakariko_closed",
            "shuffle_grottos": true,
            "shuffle_dungeons": true,
            "entrance_shuffle_interior": "entrance_shuffle_all",
            "keysanity_small_old": "keysanity_small_ignore",
            "keysanity_boss_old": "keysanity_boss_ignore",
            "shuffle_overworld": true,
            "light_arrow_cutscene": "light_arrow_cutscene_vanilla",
            "lacs_skulltulas": 100,
            "stone_count_lacs": 3,
            "medallion_count_lacs": 6,
            "dungeon_count_lacs": 9,
            "ganon_castle_open": "ganon_castle_open_skulltulas",
            "ganon_castle_skulltulas": 100,
            "stone_count_bridge": 3,
            "medallion_count_bridge": 6,
            "dungeon_count_bridge": 9,
            "ganon_boss_door_open": false,
            "trials": [
                "forest_trial",
                "water_trial",
                "shadow_trial",
                "fire_trial",
                "light_trial",
                "spirit_trial"
            ],
            "skip.lens_required": "lens_required_default",
            "overworld_skips": [
                "skip.grottos_without_agony",
                "skip.rusted_switches",
                "skip.fewer_tunic_requirements",
                "skip.visible_collisions",
                "skip.adult_kokiri_gs",
                "skip.lost_woods_bridge",
                "skip.mido_backflip",
                "skip.lost_woods_gs_bean",
                "skip.lab_wall_gs",
                "skip.water_hookshot_entry",
                "skip.lab_diving",
                "skip.valley_crate_hovers",
                "skip.gerudo_kitchen",
                "skip.wasteland_crossing",
                "skip.lens_wasteland",
                "skip.reverse_wasteland",
                "skip.colossus_gs",
                "skip.kakariko_tower_gs",
                "skip.kakariko_rooftop_gs",
                "skip.man_on_roof",
                "skip.windmill_poh",
                "skip.graveyard_poh",
                "skip.child_dampe_race_poh",
                "skip.shadow_fire_arrow_entry",
                "skip.dmt_climb_hovers",
                "skip.dmt_bombable",
                "skip.dmt_soil_gs",
                "skip.trail_gs_lower_hookshot",
                "skip.trail_gs_lower_bean",
                "skip.trail_gs_upper",
                "skip.biggoron_bolero",
                "skip.trail_gs_lower_hovers",
                "skip.link_goron_dins",
                "skip.goron_city_leftmost",
                "skip.goron_city_pot_with_strength",
                "skip.goron_city_pot",
                "skip.child_rolling_with_strength",
                "skip.goron_grotto",
                "skip.crater_upper_to_lower",
                "skip.crater_bean_poh_with_hovers",
                "skip.zora_river_lower",
                "skip.zora_river_upper",
                "skip.zora_with_hovers",
                "skip.zora_with_cucco",
                "skip.domain_gs",
                "skip.castle_storms_gs"
            ],
            "child_dungeons": [
                "skip.lens_botw",
                "skip.child_deadhand",
                "skip.botw_basement",
                "skip.botw_cage_gs",
                "skip.botw_mq_dead_hand_key",
                "skip.botw_mq_pits",
                "skip.deku_basement_gs",
                "skip.deku_b1_webs_with_bow",
                "skip.deku_b1_skip",
                "skip.deku_mq_compass_gs",
                "skip.deku_mq_log",
                "skip.dc_vines_gs",
                "skip.dc_scrub_room",
                "skip.dc_scarecrow_gs",
                "skip.dc_staircase",
                "skip.dc_slingshot_skip",
                "skip.dc_jump",
                "skip.dc_mq_child_bombs",
                "skip.dc_mq_eyes",
                "skip.dc_mq_child_back",
                "skip.jabu_scrub_jump_dive",
                "skip.jabu_boss_gs_adult",
                "skip.jabu_mq_sot_gs",
                "skip.lens_jabu_mq"
            ],
            "mini_adult_dungeons": [
                "skip.ice_block_gs",
                "skip.ice_mq_scarecrow",
                "skip.ice_mq_red_ice_gs",
                "skip.gtg_without_hookshot",
                "skip.lens_gtg",
                "skip.gtg_fake_wall",
                "skip.lens_gtg_mq",
                "skip.gtg_mq_without_hookshot",
                "skip.gtg_mq_with_hookshot",
                "skip.lens_castle",
                "skip.spirit_trial_hookshot",
                "skip.lens_castle_mq",
                "skip.shadow_trial_mq",
                "skip.fire_trial_mq",
                "skip.light_trial_mq"
            ],
            "area.temple_forest": [
                "skip.forest_outdoors_ledge",
                "skip.forest_outdoor_east_gs",
                "skip.forest_vines",
                "skip.forest_scarecrow",
                "skip.forest_outside_backdoor",
                "skip.forest_mq_block_puzzle",
                "skip.forest_mq_hallway_switch",
                "skip.forest_well_swim",
                "skip.forest_mq_hallway_switch_jumpslash",
                "skip.forest_mq_hallway_switch_hookshot",
                "skip.forest_door_frame",
                "skip.forest_first_gs"
            ],
            "area.temple_fire": [
                "skip.fire_boss_door_jump",
                "skip.fire_song_of_time",
                "skip.fire_strength",
                "skip.fire_scarecrow",
                "skip.fire_flame_maze",
                "skip.fire_mq_near_boss",
                "skip.fire_mq_bk_chest",
                "skip.fire_mq_bombable_chest",
                "skip.fire_mq_climb",
                "skip.fire_mq_maze_side_room",
                "skip.fire_mq_blocked_chest",
                "skip.fire_mq_maze_hovers",
                "skip.fire_mq_maze_jump",
                "skip.fire_mq_above_maze_gs",
                "skip.fire_mq_flame_maze"
            ],
            "area.temple_water": [
                "skip.water_temple_torch_longshot",
                "skip.water_central_bow",
                "skip.water_cracked_wall_nothing",
                "skip.water_cracked_wall_hovers",
                "skip.water_boss_key_region",
                "skip.water_dragon_bombchu",
                "skip.water_dragon_jump_dive",
                "skip.water_bk_jump_dive",
                "skip.water_bk_chest",
                "skip.water_north_basement_ledge_jump",
                "skip.water_river_gs",
                "skip.water_falling_platform_gs",
                "skip.water_dragon_adult",
                "skip.water_dragon_child",
                "skip.water_central_gs_irons",
                "skip.water_falling_platform_gs_hookshot",
                "skip.water_mq_central_pillar",
                "skip.water_mq_locked_gs",
                "skip.water_central_gs_fw",
                "skip.water_falling_platform_gs_boomerang"
            ],
            "area.temple_shadow": [
                "skip.lens_shadow",
                "skip.shadow_umbrella",
                "skip.lens_shadow_back",
                "skip.shadow_freestand_key",
                "skip.shadow_statue",
                "skip.lens_shadow_mq",
                "skip.shadow_mq_gap",
                "skip.shadow_mq_huge_pit",
                "skip.lens_shadow_mq_back",
                "skip.shadow_mq_invisible_blades",
                "skip.shadow_umbrella_gs"
            ],
            "area.temple_spirit": [
                "skip.spirit_child_bombchu",
                "skip.spirit_lower_adult_switch",
                "skip.spirit_map_chest",
                "skip.spirit_sun_chest",
                "skip.spirit_lobby_gs",
                "skip.lens_spirit",
                "skip.spirit_wall",
                "skip.spirit_mq_frozen_eye",
                "skip.lens_spirit_mq",
                "skip.spirit_mq_lower_adult",
                "skip.spirit_mq_sun_block_gs",
                "skip.spirit_mq_sun_block_sot",
                "skip.spirit_lobby_jump"
            ]
        }
    },
    "Bingo": {
        "options": {
            "logic_rules": "logic_rules_glitchless",
            "starting_age": "child",
            "consider_buyable": false,
            "bombchu_logic": false,
            "keysanity_small": false,
            "scrubsanity": false,
            "cowsanity": false,
            "beansanity": false,
            "skullsanity": false,
            "doors_open_forest": "doors_open_forest_open",
            "doors_open_temple": true,
            "doors_open_zora": "doors_open_zora_closed",
            "gerudo_fortress_open": "gerudo_fortress_open_default",
            "trade_sequence_start_item": 8,
            "free_scarecrow": false,
            "track_keys": true,
            "track_bosskeys": true,
            "shuffle_expensive_merchants": false,
            "doors_open_kakariko": "doors_open_kakariko_closed",
            "shuffle_grottos": false,
            "shuffle_dungeons": false,
            "entrance_shuffle_interior": "entrance_shuffle_off",
            "keysanity_small_old": "keysanity_small_ignore",
            "keysanity_boss_old": "keysanity_boss_ignore",
            "shuffle_overworld": false,
            "light_arrow_cutscene": "light_arrow_cutscene_vanilla",
            "lacs_skulltulas": 100,
            "stone_count_lacs": 3,
            "medallion_count_lacs": 6,
            "dungeon_count_lacs": 9,
            "ganon_castle_open": "ganon_castle_open_open",
            "ganon_castle_skulltulas": 100,
            "stone_count_bridge": 3,
            "medallion_count_bridge": 6,
            "dungeon_count_bridge": 9,
            "ganon_boss_door_open": false,
            "trials": [
                "forest_trial",
                "water_trial",
                "shadow_trial",
                "fire_trial",
                "light_trial",
                "spirit_trial"
            ],
            "skip.lens_required": "lens_required_default",
            "overworld_skips": [
                "skip.grottos_without_agony"
            ],
            "child_dungeons": [
                "skip.lens_botw"
            ],
            "mini_adult_dungeons": [
                "skip.lens_castle",
                "skip.lens_gtg"
            ],
            "area.temple_forest": [],
            "area.temple_fire": [],
            "area.temple_water": [],
            "area.temple_shadow": [
                "skip.lens_shadow",
                "skip.lens_shadow_back"
            ],
            "area.temple_spirit": [
                "skip.lens_spirit"
            ]
        }
    }
}