<?xml version="1.0" encoding="UTF-8" standalone="no"?>
<!-- Created with Inkscape (http://www.inkscape.org/) -->

<svg
   width="1000"
   height="1000"
   viewBox="0 0 264.58333 264.58334"
   version="1.1"
   id="svg1492"
   inkscape:version="1.2 (dc2aedaf03, 2022-05-15)"
   sodipodi:docname="rupees.svg"
   xml:space="preserve"
   xmlns:inkscape="http://www.inkscape.org/namespaces/inkscape"
   xmlns:sodipodi="http://sodipodi.sourceforge.net/DTD/sodipodi-0.dtd"
   xmlns="http://www.w3.org/2000/svg"
   xmlns:svg="http://www.w3.org/2000/svg"
   xmlns:rdf="http://www.w3.org/1999/02/22-rdf-syntax-ns#"
   xmlns:cc="http://creativecommons.org/ns#"
   xmlns:dc="http://purl.org/dc/elements/1.1/"><defs
     id="defs1486" /><sodipodi:namedview
     id="base"
     pagecolor="#ffffff"
     bordercolor="#666666"
     borderopacity="1.0"
     inkscape:pageopacity="0.0"
     inkscape:pageshadow="2"
     inkscape:zoom="0.087499998"
     inkscape:cx="-1160"
     inkscape:cy="548.57144"
     inkscape:document-units="px"
     inkscape:current-layer="svg1492"
     showgrid="false"
     units="px"
     inkscape:window-width="1920"
     inkscape:window-height="1017"
     inkscape:window-x="-8"
     inkscape:window-y="-8"
     inkscape:window-maximized="1"
     inkscape:showpageshadow="0"
     inkscape:pagecheckerboard="1"
     inkscape:deskcolor="#d1d1d1" /><metadata
     id="metadata1489"><rdf:RDF><cc:Work
         rdf:about=""><dc:format>image/svg+xml</dc:format><dc:type
           rdf:resource="http://purl.org/dc/dcmitype/StillImage" /></cc:Work></rdf:RDF></metadata><g
     inkscape:label="Green Rupee"
     id="layer1"
     transform="matrix(0.43247005,0,0,0.43247005,19.156309,123.61071)"
     style="stroke-width:2.3123"><path
       id="path351"
       style="fill:#199101;fill-opacity:1;stroke-width:4.27337;stroke-linecap:round;stroke-linejoin:round;stroke-miterlimit:6;paint-order:markers stroke fill"
       inkscape:transform-center-x="1.3940106e-06"
       d="m 82.853565,266.4665 -65.29178,-46.04303 -2e-6,-123.836074 65.291779,-46.043041 65.291768,46.043041 1e-5,123.836074 z"
       sodipodi:nodetypes="ccccccc"
       inkscape:label="background" /><path
       style="fill:#ffffff;fill-opacity:0.567084;stroke:none;stroke-width:0.611795px;stroke-linecap:butt;stroke-linejoin:miter;stroke-opacity:1"
       d="M 17.561783,96.587394 44.2134,118.67154 82.85356,93.307479 V 50.544355 Z"
       id="path2827"
       sodipodi:nodetypes="ccccc"
       inkscape:label="top left" /><path
       style="fill:#000000;fill-opacity:0.266547;stroke:none;stroke-width:0.611795px;stroke-linecap:butt;stroke-linejoin:miter;stroke-opacity:1"
       d="M 82.85356,93.307477 121.49371,118.67154 148.14533,96.587394 82.85356,50.544355 Z"
       id="path2829"
       sodipodi:nodetypes="ccccc"
       inkscape:label="top right" /><path
       style="fill:#000000;fill-opacity:0.169946;stroke:none;stroke-width:0.611795px;stroke-linecap:butt;stroke-linejoin:miter;stroke-opacity:1"
       d="m 121.49371,118.67154 26.65162,-22.084148 1e-5,123.836078 -26.65162,-22.08415 z"
       id="path2831"
       sodipodi:nodetypes="ccccc"
       inkscape:label="right" /><path
       style="fill:#ffffff;fill-opacity:0.16458;stroke:none;stroke-width:0.611795px;stroke-linecap:butt;stroke-linejoin:miter;stroke-opacity:1"
       d="m 82.853562,223.70337 v 42.76312 l 65.291778,-46.04302 -26.65162,-22.08415 z"
       id="path2833"
       sodipodi:nodetypes="ccccc"
       inkscape:label="bottom right" /><path
       style="fill:#000000;fill-opacity:0.250447;stroke:none;stroke-width:0.611795px;stroke-linecap:butt;stroke-linejoin:miter;stroke-opacity:1"
       d="m 44.213403,198.33932 38.640159,25.36405 v 42.76312 L 17.561785,220.42347 Z"
       id="path2835"
       sodipodi:nodetypes="ccccc"
       inkscape:label="bottom left" /><path
       style="fill:#ffffff;fill-opacity:0.289803;stroke:none;stroke-width:0.611795px;stroke-linecap:butt;stroke-linejoin:miter;stroke-opacity:1"
       d="M 44.213403,198.33932 17.561785,220.42347 17.561783,96.587394 44.2134,118.67154 Z"
       id="path2837"
       sodipodi:nodetypes="ccccc"
       inkscape:label="left" /></g><g
     inkscape:label="Blue Rupee"
     id="g9957"
     transform="matrix(0.43247005,0,0,0.43247005,35.867017,14.645569)"
     style="stroke-width:2.3123"><path
       id="path9943"
       style="fill:#014fbe;fill-opacity:1;stroke-width:4.27337;stroke-linecap:round;stroke-linejoin:round;stroke-miterlimit:6;paint-order:markers stroke fill"
       inkscape:transform-center-x="1.3940106e-06"
       d="m 82.853565,266.4665 -65.29178,-46.04303 -2e-6,-123.836074 65.291779,-46.043041 65.291768,46.043041 1e-5,123.836074 z"
       sodipodi:nodetypes="ccccccc"
       inkscape:label="background" /><path
       style="fill:#ffffff;fill-opacity:0.567084;stroke:none;stroke-width:0.611795px;stroke-linecap:butt;stroke-linejoin:miter;stroke-opacity:1"
       d="M 17.561783,96.587394 44.2134,118.67154 82.85356,93.307479 V 50.544355 Z"
       id="path9945"
       sodipodi:nodetypes="ccccc"
       inkscape:label="top left" /><path
       style="fill:#000000;fill-opacity:0.266547;stroke:none;stroke-width:0.611795px;stroke-linecap:butt;stroke-linejoin:miter;stroke-opacity:1"
       d="M 82.85356,93.307477 121.49371,118.67154 148.14533,96.587394 82.85356,50.544355 Z"
       id="path9947"
       sodipodi:nodetypes="ccccc"
       inkscape:label="top right" /><path
       style="fill:#000000;fill-opacity:0.169946;stroke:none;stroke-width:0.611795px;stroke-linecap:butt;stroke-linejoin:miter;stroke-opacity:1"
       d="m 121.49371,118.67154 26.65162,-22.084148 1e-5,123.836078 -26.65162,-22.08415 z"
       id="path9949"
       sodipodi:nodetypes="ccccc"
       inkscape:label="right" /><path
       style="fill:#ffffff;fill-opacity:0.16458;stroke:none;stroke-width:0.611795px;stroke-linecap:butt;stroke-linejoin:miter;stroke-opacity:1"
       d="m 82.853562,223.70337 v 42.76312 l 65.291778,-46.04302 -26.65162,-22.08415 z"
       id="path9951"
       sodipodi:nodetypes="ccccc"
       inkscape:label="bottom right" /><path
       style="fill:#000000;fill-opacity:0.250447;stroke:none;stroke-width:0.611795px;stroke-linecap:butt;stroke-linejoin:miter;stroke-opacity:1"
       d="m 44.213403,198.33932 38.640159,25.36405 v 42.76312 L 17.561785,220.42347 Z"
       id="path9953"
       sodipodi:nodetypes="ccccc"
       inkscape:label="bottom left" /><path
       style="fill:#ffffff;fill-opacity:0.289803;stroke:none;stroke-width:0.611795px;stroke-linecap:butt;stroke-linejoin:miter;stroke-opacity:1"
       d="M 44.213403,198.33932 17.561785,220.42347 17.561783,96.587394 44.2134,118.67154 Z"
       id="path9955"
       sodipodi:nodetypes="ccccc"
       inkscape:label="left" /></g><g
     inkscape:label="Red Rupee"
     id="g10336"
     transform="matrix(0.43247005,0,0,0.43247005,92.340494,108.02543)"
     style="stroke-width:2.3123"><path
       id="path10322"
       style="fill:#820101;fill-opacity:1;stroke-width:4.27337;stroke-linecap:round;stroke-linejoin:round;stroke-miterlimit:6;paint-order:markers stroke fill"
       inkscape:transform-center-x="1.3940106e-06"
       d="m 82.853565,266.4665 -65.29178,-46.04303 -2e-6,-123.836074 65.291779,-46.043041 65.291768,46.043041 1e-5,123.836074 z"
       sodipodi:nodetypes="ccccccc"
       inkscape:label="background" /><path
       style="fill:#ffffff;fill-opacity:0.567084;stroke:none;stroke-width:0.611795px;stroke-linecap:butt;stroke-linejoin:miter;stroke-opacity:1"
       d="M 17.561783,96.587394 44.2134,118.67154 82.85356,93.307479 V 50.544355 Z"
       id="path10324"
       sodipodi:nodetypes="ccccc"
       inkscape:label="top left" /><path
       style="fill:#000000;fill-opacity:0.266547;stroke:none;stroke-width:0.611795px;stroke-linecap:butt;stroke-linejoin:miter;stroke-opacity:1"
       d="M 82.85356,93.307477 121.49371,118.67154 148.14533,96.587394 82.85356,50.544355 Z"
       id="path10326"
       sodipodi:nodetypes="ccccc"
       inkscape:label="top right" /><path
       style="fill:#000000;fill-opacity:0.169946;stroke:none;stroke-width:0.611795px;stroke-linecap:butt;stroke-linejoin:miter;stroke-opacity:1"
       d="m 121.49371,118.67154 26.65162,-22.084148 1e-5,123.836078 -26.65162,-22.08415 z"
       id="path10328"
       sodipodi:nodetypes="ccccc"
       inkscape:label="right" /><path
       style="fill:#ffffff;fill-opacity:0.16458;stroke:none;stroke-width:0.611795px;stroke-linecap:butt;stroke-linejoin:miter;stroke-opacity:1"
       d="m 82.853562,223.70337 v 42.76312 l 65.291778,-46.04302 -26.65162,-22.08415 z"
       id="path10330"
       sodipodi:nodetypes="ccccc"
       inkscape:label="bottom right" /><path
       style="fill:#000000;fill-opacity:0.250447;stroke:none;stroke-width:0.611795px;stroke-linecap:butt;stroke-linejoin:miter;stroke-opacity:1"
       d="m 44.213403,198.33932 38.640159,25.36405 v 42.76312 L 17.561785,220.42347 Z"
       id="path10332"
       sodipodi:nodetypes="ccccc"
       inkscape:label="bottom left" /><path
       style="fill:#ffffff;fill-opacity:0.289803;stroke:none;stroke-width:0.611795px;stroke-linecap:butt;stroke-linejoin:miter;stroke-opacity:1"
       d="M 44.213403,198.33932 17.561785,220.42347 17.561783,96.587394 44.2134,118.67154 Z"
       id="path10334"
       sodipodi:nodetypes="ccccc"
       inkscape:label="left" /></g><g
     inkscape:label="Green Rupee"
     id="g15310"
     transform="matrix(0.43247005,0,0,0.43247005,149.07158,1.5513304)"
     style="stroke-width:2.3123"><path
       id="path15296"
       style="fill:#199101;fill-opacity:1;stroke-width:4.27337;stroke-linecap:round;stroke-linejoin:round;stroke-miterlimit:6;paint-order:markers stroke fill"
       inkscape:transform-center-x="1.3940106e-06"
       d="m 82.853565,266.4665 -65.29178,-46.04303 -2e-6,-123.836074 65.291779,-46.043041 65.291768,46.043041 1e-5,123.836074 z"
       sodipodi:nodetypes="ccccccc"
       inkscape:label="background" /><path
       style="fill:#ffffff;fill-opacity:0.567084;stroke:none;stroke-width:0.611795px;stroke-linecap:butt;stroke-linejoin:miter;stroke-opacity:1"
       d="M 17.561783,96.587394 44.2134,118.67154 82.85356,93.307479 V 50.544355 Z"
       id="path15298"
       sodipodi:nodetypes="ccccc"
       inkscape:label="top left" /><path
       style="fill:#000000;fill-opacity:0.266547;stroke:none;stroke-width:0.611795px;stroke-linecap:butt;stroke-linejoin:miter;stroke-opacity:1"
       d="M 82.85356,93.307477 121.49371,118.67154 148.14533,96.587394 82.85356,50.544355 Z"
       id="path15300"
       sodipodi:nodetypes="ccccc"
       inkscape:label="top right" /><path
       style="fill:#000000;fill-opacity:0.169946;stroke:none;stroke-width:0.611795px;stroke-linecap:butt;stroke-linejoin:miter;stroke-opacity:1"
       d="m 121.49371,118.67154 26.65162,-22.084148 1e-5,123.836078 -26.65162,-22.08415 z"
       id="path15302"
       sodipodi:nodetypes="ccccc"
       inkscape:label="right" /><path
       style="fill:#ffffff;fill-opacity:0.16458;stroke:none;stroke-width:0.611795px;stroke-linecap:butt;stroke-linejoin:miter;stroke-opacity:1"
       d="m 82.853562,223.70337 v 42.76312 l 65.291778,-46.04302 -26.65162,-22.08415 z"
       id="path15304"
       sodipodi:nodetypes="ccccc"
       inkscape:label="bottom right" /><path
       style="fill:#000000;fill-opacity:0.250447;stroke:none;stroke-width:0.611795px;stroke-linecap:butt;stroke-linejoin:miter;stroke-opacity:1"
       d="m 44.213403,198.33932 38.640159,25.36405 v 42.76312 L 17.561785,220.42347 Z"
       id="path15306"
       sodipodi:nodetypes="ccccc"
       inkscape:label="bottom left" /><path
       style="fill:#ffffff;fill-opacity:0.289803;stroke:none;stroke-width:0.611795px;stroke-linecap:butt;stroke-linejoin:miter;stroke-opacity:1"
       d="M 44.213403,198.33932 17.561785,220.42347 17.561783,96.587394 44.2134,118.67154 Z"
       id="path15308"
       sodipodi:nodetypes="ccccc"
       inkscape:label="left" /></g><g
     inkscape:label="Blue Rupee"
     id="g15326"
     transform="matrix(0.43247005,0,0,0.43247005,169.03262,129.38512)"
     style="stroke-width:2.3123"><path
       id="path15312"
       style="fill:#014fbe;fill-opacity:1;stroke-width:4.27337;stroke-linecap:round;stroke-linejoin:round;stroke-miterlimit:6;paint-order:markers stroke fill"
       inkscape:transform-center-x="1.3940106e-06"
       d="m 82.853565,266.4665 -65.29178,-46.04303 -2e-6,-123.836074 65.291779,-46.043041 65.291768,46.043041 1e-5,123.836074 z"
       sodipodi:nodetypes="ccccccc"
       inkscape:label="background" /><path
       style="fill:#ffffff;fill-opacity:0.567084;stroke:none;stroke-width:0.611795px;stroke-linecap:butt;stroke-linejoin:miter;stroke-opacity:1"
       d="M 17.561783,96.587394 44.2134,118.67154 82.85356,93.307479 V 50.544355 Z"
       id="path15314"
       sodipodi:nodetypes="ccccc"
       inkscape:label="top left" /><path
       style="fill:#000000;fill-opacity:0.266547;stroke:none;stroke-width:0.611795px;stroke-linecap:butt;stroke-linejoin:miter;stroke-opacity:1"
       d="M 82.85356,93.307477 121.49371,118.67154 148.14533,96.587394 82.85356,50.544355 Z"
       id="path15316"
       sodipodi:nodetypes="ccccc"
       inkscape:label="top right" /><path
       style="fill:#000000;fill-opacity:0.169946;stroke:none;stroke-width:0.611795px;stroke-linecap:butt;stroke-linejoin:miter;stroke-opacity:1"
       d="m 121.49371,118.67154 26.65162,-22.084148 1e-5,123.836078 -26.65162,-22.08415 z"
       id="path15318"
       sodipodi:nodetypes="ccccc"
       inkscape:label="right" /><path
       style="fill:#ffffff;fill-opacity:0.16458;stroke:none;stroke-width:0.611795px;stroke-linecap:butt;stroke-linejoin:miter;stroke-opacity:1"
       d="m 82.853562,223.70337 v 42.76312 l 65.291778,-46.04302 -26.65162,-22.08415 z"
       id="path15320"
       sodipodi:nodetypes="ccccc"
       inkscape:label="bottom right" /><path
       style="fill:#000000;fill-opacity:0.250447;stroke:none;stroke-width:0.611795px;stroke-linecap:butt;stroke-linejoin:miter;stroke-opacity:1"
       d="m 44.213403,198.33932 38.640159,25.36405 v 42.76312 L 17.561785,220.42347 Z"
       id="path15322"
       sodipodi:nodetypes="ccccc"
       inkscape:label="bottom left" /><path
       style="fill:#ffffff;fill-opacity:0.289803;stroke:none;stroke-width:0.611795px;stroke-linecap:butt;stroke-linejoin:miter;stroke-opacity:1"
       d="M 44.213403,198.33932 17.561785,220.42347 17.561783,96.587394 44.2134,118.67154 Z"
       id="path15324"
       sodipodi:nodetypes="ccccc"
       inkscape:label="left" /></g></svg>
