{
    "parameters": {
        "allowExtension": false
    },
    "definition": {
        "@type": "AssociativeList",
        "optional": false,
        "children": {
            "@type": "Song",
            "optional": true
        }
    }
}